counter.vcd
$date today $end
$timescale 100 ps $end
$scope module top $end
$var wire 4 ! cnt $end
$var wire 4 " a $end
$var wire 1 # clk $end
$upscope $end
$enddefinitions $end
#0
$dumpvars
b0 !
b0 "
0#
$end
#49
b1 !
1#
#99
0#
#149
b10 !
1#
#199
0#
#249
b11 !
1#
#299
0#
#349
b100 !
1#
#399
0#
#449
b101 !
1#
#499
0#
#549
b110 !
1#
#599
0#
#649
b111 !
1#
#699
0#
#749
b1000 !
1#
#799
0#
#849
b1001 !
1#
#899
0#
#949
b1010 !
1#
#999
0#
#1049
b1011 !
1#
#1099
0#
#1149
b1100 !
1#
#1199
0#
#1249
b1101 !
1#
#1299
0#
#1349
b1110 !
1#
#1399
0#
#1449
b1111 !
1#
#1499
0#
#1549
b0 !
1#
#1599
0#
#1649
b1 !
1#
#1699
0#
#1749
b10 !
1#
#1799
0#
#1849
b11 !
1#
#1899
0#
#1949
b100 !
1#
#1999
0#
#2049
b101 !
1#
#2099
0#
#2149
b110 !
1#
#2199
0#
#2249
b111 !
1#
#2299
0#
#2349
b1000 !
1#
#2399
0#
#2449
b1001 !
1#
#2499
0#
#2549
b1010 !
1#
#2599
0#
#2649
b1011 !
1#
#2699
0#
#2749
b1100 !
1#
#2799
0#
#2849
b1101 !
1#
#2899
0#
#2949
b1110 !
1#
#2999
0#
#3049
b1111 !
1#
#3099
0#
#3149
b0 !
1#
#3199
0#
#3249
b1 !
1#
#3299
0#
#3349
b10 !
1#
#3399
0#
#3449
b11 !
1#
#3499
0#
#3549
b100 !
1#
#3599
0#
#3649
b101 !
1#
#3699
0#
#3749
b110 !
1#
#3799
0#
#3849
b111 !
1#
#3899
0#
#3949
b1000 !
1#
#3999
0#
#4049
b1001 !
1#
#4099
0#
#4149
b1010 !
1#
#4199
0#
#4249
b1011 !
1#
#4299
0#
#4349
b1100 !
1#
#4399
0#
#4449
b1101 !
1#
#4499
0#
#4549
b1110 !
1#
#4599
0#
#4649
b1111 !
1#
#4699
0#
#4749
b0 !
1#
#4799
0#
#4849
b1 !
1#
#4899
0#
#4949
b10 !
1#
#4999
0#
#5049
b11 !
1#
#5099
0#
#5149
b100 !
1#
#5199
0#
#5249
b101 !
1#
#5299
0#
#5349
b110 !
1#
#5399
0#
#5449
b111 !
1#
#5499
0#
#5549
b1000 !
1#
#5599
0#
#5649
b1001 !
1#
#5699
0#
#5749
b1010 !
1#
#5799
0#
#5849
b1011 !
1#
#5899
0#
#5949
b1100 !
1#
#5999
0#
#6049
b1101 !
1#
#6099
0#
#6149
b1110 !
1#
#6199
0#
#6249
b1111 !
1#
#6299
0#
#6349
b0 !
1#
#6399
0#
#6449
b1 !
1#
#6499
0#
#6549
b10 !
1#
#6599
0#
#6649
b11 !
1#
#6699
0#
#6749
b100 !
1#
#6799
0#
#6849
b101 !
1#
#6899
0#
#6949
b110 !
1#
#6999
0#
#7049
b111 !
1#
#7099
0#
#7149
b1000 !
1#
#7199
0#
#7249
b1001 !
1#
#7299
0#
#7349
b1010 !
1#
#7399
0#
#7449
b1011 !
1#
#7499
0#
#7549
b1100 !
1#
#7599
0#
#7649
b1101 !
1#
#7699
0#
#7749
b1110 !
1#
#7799
0#
#7849
b1111 !
1#
#7899
0#
#7949
b0 !
1#
#7999
0#
#8049
b1 !
1#
#8099
0#
#8149
b10 !
1#
#8199
0#
#8249
b11 !
1#
#8299
0#
#8349
b100 !
1#
#8399
0#
#8449
b101 !
1#
#8499
0#
#8549
b110 !
1#
#8599
0#
#8649
b111 !
1#
#8699
0#
#8749
b1000 !
1#
#8799
0#
#8849
b1001 !
1#
#8899
0#
#8949
b1010 !
1#
#8999
0#
#9049
b1011 !
1#
#9099
0#
#9149
b1100 !
1#
#9199
0#
#9249
b1101 !
1#
#9299
0#
#9349
b1110 !
1#
#9399
0#
#9449
b1111 !
1#
#9499
0#
#9549
b0 !
1#
#9599
0#
#9649
b1 !
1#
#9699
0#
#9749
b10 !
1#
#9799
0#
#9849
b11 !
1#
#9899
0#
#9949
b100 !
1#
