example/working/matrix_mul.vcd
$date today $end
$timescale 1 ns $end
$scope module top $end
$var wire 8 ! result $end
$var wire 8 " regs_a[0][0] $end
$var wire 8 # regs_a[1][0] $end
$var wire 8 $ regs_a[1][1] $end
$var wire 8 % regs_a[2][0] $end
$var wire 8 & regs_a[2][1] $end
$var wire 8 ' regs_a[2][2] $end
$var wire 8 ( regs_a[3][0] $end
$var wire 8 ) regs_a[3][1] $end
$var wire 8 * regs_a[3][2] $end
$var wire 8 + regs_a[3][3] $end
$var wire 8 , regs_a[4][0] $end
$var wire 8 - regs_a[4][1] $end
$var wire 8 . regs_a[4][2] $end
$var wire 8 / regs_a[4][3] $end
$var wire 8 0 regs_a[4][4] $end
$var wire 8 1 regs_b[0][0] $end
$var wire 8 2 regs_b[1][0] $end
$var wire 8 3 regs_b[1][1] $end
$var wire 8 4 regs_b[2][0] $end
$var wire 8 5 regs_b[2][1] $end
$var wire 8 6 regs_b[2][2] $end
$var wire 8 7 regs_b[3][0] $end
$var wire 8 8 regs_b[3][1] $end
$var wire 8 9 regs_b[3][2] $end
$var wire 8 : regs_b[3][3] $end
$var wire 8 ; regs_b[4][0] $end
$var wire 8 < regs_b[4][1] $end
$var wire 8 = regs_b[4][2] $end
$var wire 8 > regs_b[4][3] $end
$var wire 8 ? regs_b[4][4] $end
$var wire 1 @ clk $end
$upscope $end
$enddefinitions $end
#0
$dumpvars
b0 !
b0 "
b0 #
b0 $
b0 %
b0 &
b0 '
b0 (
b0 )
b0 *
b0 +
b0 ,
b0 -
b0 .
b0 /
b0 0
b0 1
b0 2
b0 3
b0 4
b0 5
b0 6
b0 7
b0 8
b0 9
b0 :
b0 ;
b0 <
b0 =
b0 >
b0 ?
0@
$end
#4
b1 "
b10 #
b11 %
b100 (
b101 ,
b1 1
b10 2
b11 4
b100 7
b101 ;
1@
#9
0@
#14
b10 "
b11 #
b10 $
b100 %
b11 &
b101 (
b100 )
b110 ,
b101 -
b10 1
b11 2
b10 3
b100 4
b11 5
b101 7
b100 8
b110 ;
b101 <
1@
#19
0@
#24
b11 "
b100 #
b11 $
b101 %
b100 &
b11 '
b110 (
b101 )
b100 *
b111 ,
b110 -
b101 .
b11 1
b100 2
b11 3
b101 4
b100 5
b11 6
b110 7
b101 8
b100 9
b111 ;
b110 <
b101 =
1@
#29
0@
#34
b100 "
b101 #
b100 $
b110 %
b101 &
b100 '
b111 (
b110 )
b101 *
b100 +
b1000 ,
b111 -
b110 .
b101 /
b100 1
b101 2
b100 3
b110 4
b101 5
b100 6
b111 7
b110 8
b101 9
b100 :
b1000 ;
b111 <
b110 =
b101 >
1@
#39
0@
#44
b101 "
b110 #
b101 $
b111 %
b110 &
b101 '
b1000 (
b111 )
b110 *
b101 +
b1001 ,
b1000 -
b111 .
b110 /
b101 0
b101 1
b110 2
b101 3
b111 4
b110 5
b101 6
b1000 7
b111 8
b110 9
b101 :
b1001 ;
b1000 <
b111 =
b110 >
b101 ?
1@
#49
0@
#54
b0 "
b0 #
b110 $
b0 %
b111 &
b110 '
b0 (
b1000 )
b111 *
b110 +
b0 ,
b1001 -
b1000 .
b111 /
b110 0
b0 1
b0 2
b110 3
b0 4
b111 5
b110 6
b0 7
b1000 8
b111 9
b110 :
b0 ;
b1001 <
b1000 =
b111 >
b110 ?
1@
#59
0@
#64
b0 $
b0 &
b111 '
b0 )
b1000 *
b111 +
b0 -
b1001 .
b1000 /
b111 0
b0 3
b0 5
b111 6
b0 8
b1000 9
b111 :
b0 <
b1001 =
b1000 >
b111 ?
1@
#69
0@
#74
b0 '
b0 *
b1000 +
b0 .
b1001 /
b1000 0
b0 6
b0 9
b1000 :
b0 =
b1001 >
b1000 ?
1@
#79
0@
#84
b0 +
b0 /
b1001 0
b0 :
b0 >
b1001 ?
1@
#89
0@
#94
b0 0
b0 ?
1@
