example/working/systolic_array.vcd
$date today $end
$timescale 1 ns $end
$scope module top $end
$var wire 8 ! PE[0][0]reg_result $end
$var wire 8 " PE[0][0]reg_a $end
$var wire 8 # PE[0][0]reg_b $end
$var wire 8 $ PE[0][1]reg_result $end
$var wire 8 % PE[0][1]reg_a $end
$var wire 8 & PE[0][1]reg_b $end
$var wire 8 ' PE[0][2]reg_result $end
$var wire 8 ( PE[0][2]reg_a $end
$var wire 8 ) PE[0][2]reg_b $end
$var wire 8 * PE[0][3]reg_result $end
$var wire 8 + PE[0][3]reg_a $end
$var wire 8 , PE[0][3]reg_b $end
$var wire 8 - PE[0][4]reg_result $end
$var wire 8 . PE[0][4]reg_a $end
$var wire 8 / PE[0][4]reg_b $end
$var wire 8 0 PE[1][0]reg_result $end
$var wire 8 1 PE[1][0]reg_a $end
$var wire 8 2 PE[1][0]reg_b $end
$var wire 8 3 PE[1][1]reg_result $end
$var wire 8 4 PE[1][1]reg_a $end
$var wire 8 5 PE[1][1]reg_b $end
$var wire 8 6 PE[1][2]reg_result $end
$var wire 8 7 PE[1][2]reg_a $end
$var wire 8 8 PE[1][2]reg_b $end
$var wire 8 9 PE[1][3]reg_result $end
$var wire 8 : PE[1][3]reg_a $end
$var wire 8 ; PE[1][3]reg_b $end
$var wire 8 < PE[1][4]reg_result $end
$var wire 8 = PE[1][4]reg_a $end
$var wire 8 > PE[1][4]reg_b $end
$var wire 8 ? PE[2][0]reg_result $end
$var wire 8 @ PE[2][0]reg_a $end
$var wire 8 A PE[2][0]reg_b $end
$var wire 8 B PE[2][1]reg_result $end
$var wire 8 C PE[2][1]reg_a $end
$var wire 8 D PE[2][1]reg_b $end
$var wire 8 E PE[2][2]reg_result $end
$var wire 8 F PE[2][2]reg_a $end
$var wire 8 G PE[2][2]reg_b $end
$var wire 8 H PE[2][3]reg_result $end
$var wire 8 I PE[2][3]reg_a $end
$var wire 8 J PE[2][3]reg_b $end
$var wire 8 K PE[2][4]reg_result $end
$var wire 8 L PE[2][4]reg_a $end
$var wire 8 M PE[2][4]reg_b $end
$var wire 8 N PE[3][0]reg_result $end
$var wire 8 O PE[3][0]reg_a $end
$var wire 8 P PE[3][0]reg_b $end
$var wire 8 Q PE[3][1]reg_result $end
$var wire 8 R PE[3][1]reg_a $end
$var wire 8 S PE[3][1]reg_b $end
$var wire 8 T PE[3][2]reg_result $end
$var wire 8 U PE[3][2]reg_a $end
$var wire 8 V PE[3][2]reg_b $end
$var wire 8 W PE[3][3]reg_result $end
$var wire 8 X PE[3][3]reg_a $end
$var wire 8 Y PE[3][3]reg_b $end
$var wire 8 Z PE[3][4]reg_result $end
$var wire 8 [ PE[3][4]reg_a $end
$var wire 8 \ PE[3][4]reg_b $end
$var wire 8 ] PE[4][0]reg_result $end
$var wire 8 ^ PE[4][0]reg_a $end
$var wire 8 _ PE[4][0]reg_b $end
$var wire 8 ` PE[4][1]reg_result $end
$var wire 8 a PE[4][1]reg_a $end
$var wire 8 b PE[4][1]reg_b $end
$var wire 8 c PE[4][2]reg_result $end
$var wire 8 d PE[4][2]reg_a $end
$var wire 8 e PE[4][2]reg_b $end
$var wire 8 f PE[4][3]reg_result $end
$var wire 8 g PE[4][3]reg_a $end
$var wire 8 h PE[4][3]reg_b $end
$var wire 8 i PE[4][4]reg_result $end
$var wire 8 j PE[4][4]reg_a $end
$var wire 8 k PE[4][4]reg_b $end
$var wire 1 l clk $end
$upscope $end
$enddefinitions $end
#0
$dumpvars
b0 !
b0 "
b0 #
b0 $
b0 %
b0 &
b0 '
b0 (
b0 )
b0 *
b0 +
b0 ,
b0 -
b0 .
b0 /
b0 0
b0 1
b0 2
b0 3
b0 4
b0 5
b0 6
b0 7
b0 8
b0 9
b0 :
b0 ;
b0 <
b0 =
b0 >
b0 ?
b0 @
b0 A
b0 B
b0 C
b0 D
b0 E
b0 F
b0 G
b0 H
b0 I
b0 J
b0 K
b0 L
b0 M
b0 N
b0 O
b0 P
b0 Q
b0 R
b0 S
b0 T
b0 U
b0 V
b0 W
b0 X
b0 Y
b0 Z
b0 [
b0 \
b0 ]
b0 ^
b0 _
b0 `
b0 a
b0 b
b0 c
b0 d
b0 e
b0 f
b0 g
b0 h
b0 i
b0 j
b0 k
0l
$end
#4
b1 !
b1 "
b1 #
b1 &
b1 )
b1 ,
b1 /
1l
#9
0l
#14
b10 !
b1 $
b1 %
b1 0
b1 1
b1 2
b1 5
b1 8
b1 ;
b1 >
1l
#19
0l
#24
b11 !
b10 $
b1 '
b1 (
b10 0
b1 3
b1 4
b1 ?
b1 @
b1 A
b1 D
b1 G
b1 J
b1 M
1l
#29
0l
#34
b100 !
b11 $
b10 '
b1 *
b1 +
b11 0
b10 3
b1 6
b1 7
b10 ?
b1 B
b1 C
b1 N
b1 O
b1 P
b1 S
b1 V
b1 Y
b1 \
1l
#39
0l
#44
b101 !
b100 $
b11 '
b10 *
b1 -
b1 .
b100 0
b11 3
b10 6
b1 9
b1 :
b11 ?
b10 B
b1 E
b1 F
b10 N
b1 Q
b1 R
b1 ]
b1 ^
b1 _
b1 b
b1 e
b1 h
b1 k
1l
#49
0l
#54
b110 !
b101 $
b100 '
b11 *
b10 -
b101 0
b100 3
b11 6
b10 9
b1 <
b1 =
b100 ?
b11 B
b10 E
b1 H
b1 I
b11 N
b10 Q
b1 T
b1 U
b10 ]
b1 `
b1 a
1l
#59
0l
#64
b111 !
b110 $
b101 '
b100 *
b11 -
b110 0
b101 3
b100 6
b11 9
b10 <
b101 ?
b100 B
b11 E
b10 H
b1 K
b1 L
b100 N
b11 Q
b10 T
b1 W
b1 X
b11 ]
b10 `
b1 c
b1 d
1l
#69
0l
#74
b1000 !
b111 $
b110 '
b101 *
b100 -
b111 0
b110 3
b101 6
b100 9
b11 <
b110 ?
b101 B
b100 E
b11 H
b10 K
b101 N
b100 Q
b11 T
b10 W
b1 Z
b1 [
b100 ]
b11 `
b10 c
b1 f
b1 g
1l
#79
0l
#84
b1001 !
b1000 $
b111 '
b110 *
b101 -
b1000 0
b111 3
b110 6
b101 9
b100 <
b111 ?
b110 B
b101 E
b100 H
b11 K
b110 N
b101 Q
b100 T
b11 W
b10 Z
b101 ]
b100 `
b11 c
b10 f
b1 i
b1 j
1l
#89
0l
#94
b1010 !
b1001 $
b1000 '
b111 *
b110 -
b1001 0
b1000 3
b111 6
b110 9
b101 <
b1000 ?
b111 B
b110 E
b101 H
b100 K
b111 N
b110 Q
b101 T
b100 W
b11 Z
b110 ]
b101 `
b100 c
b11 f
b10 i
1l
#99
0l
#104
b1011 !
b1010 $
b1001 '
b1000 *
b111 -
b1010 0
b1001 3
b1000 6
b111 9
b110 <
b1001 ?
b1000 B
b111 E
b110 H
b101 K
b1000 N
b111 Q
b110 T
b101 W
b100 Z
b111 ]
b110 `
b101 c
b100 f
b11 i
1l
#109
0l
#114
b1100 !
b1011 $
b1010 '
b1001 *
b1000 -
b1011 0
b1010 3
b1001 6
b1000 9
b111 <
b1010 ?
b1001 B
b1000 E
b111 H
b110 K
b1001 N
b1000 Q
b111 T
b110 W
b101 Z
b1000 ]
b111 `
b110 c
b101 f
b100 i
1l
#119
0l
#124
b1101 !
b1100 $
b1011 '
b1010 *
b1001 -
b1100 0
b1011 3
b1010 6
b1001 9
b1000 <
b1011 ?
b1010 B
b1001 E
b1000 H
b111 K
b1010 N
b1001 Q
b1000 T
b111 W
b110 Z
b1001 ]
b1000 `
b111 c
b110 f
b101 i
1l
#129
0l
#134
b1110 !
b1101 $
b1100 '
b1011 *
b1010 -
b1101 0
b1100 3
b1011 6
b1010 9
b1001 <
b1100 ?
b1011 B
b1010 E
b1001 H
b1000 K
b1011 N
b1010 Q
b1001 T
b1000 W
b111 Z
b1010 ]
b1001 `
b1000 c
b111 f
b110 i
1l
#139
0l
#144
b1111 !
b1110 $
b1101 '
b1100 *
b1011 -
b1110 0
b1101 3
b1100 6
b1011 9
b1010 <
b1101 ?
b1100 B
b1011 E
b1010 H
b1001 K
b1100 N
b1011 Q
b1010 T
b1001 W
b1000 Z
b1011 ]
b1010 `
b1001 c
b1000 f
b111 i
1l
#149
0l
#154
b10000 !
b1111 $
b1110 '
b1101 *
b1100 -
b1111 0
b1110 3
b1101 6
b1100 9
b1011 <
b1110 ?
b1101 B
b1100 E
b1011 H
b1010 K
b1101 N
b1100 Q
b1011 T
b1010 W
b1001 Z
b1100 ]
b1011 `
b1010 c
b1001 f
b1000 i
1l
#159
0l
#164
b10001 !
b10000 $
b1111 '
b1110 *
b1101 -
b10000 0
b1111 3
b1110 6
b1101 9
b1100 <
b1111 ?
b1110 B
b1101 E
b1100 H
b1011 K
b1110 N
b1101 Q
b1100 T
b1011 W
b1010 Z
b1101 ]
b1100 `
b1011 c
b1010 f
b1001 i
1l
#169
0l
#174
b10010 !
b10001 $
b10000 '
b1111 *
b1110 -
b10001 0
b10000 3
b1111 6
b1110 9
b1101 <
b10000 ?
b1111 B
b1110 E
b1101 H
b1100 K
b1111 N
b1110 Q
b1101 T
b1100 W
b1011 Z
b1110 ]
b1101 `
b1100 c
b1011 f
b1010 i
1l
#179
0l
#184
b10011 !
b10010 $
b10001 '
b10000 *
b1111 -
b10010 0
b10001 3
b10000 6
b1111 9
b1110 <
b10001 ?
b10000 B
b1111 E
b1110 H
b1101 K
b10000 N
b1111 Q
b1110 T
b1101 W
b1100 Z
b1111 ]
b1110 `
b1101 c
b1100 f
b1011 i
1l
#189
0l
#194
b10100 !
b10011 $
b10010 '
b10001 *
b10000 -
b10011 0
b10010 3
b10001 6
b10000 9
b1111 <
b10010 ?
b10001 B
b10000 E
b1111 H
b1110 K
b10001 N
b10000 Q
b1111 T
b1110 W
b1101 Z
b10000 ]
b1111 `
b1110 c
b1101 f
b1100 i
1l
#199
0l
#204
b10101 !
b10100 $
b10011 '
b10010 *
b10001 -
b10100 0
b10011 3
b10010 6
b10001 9
b10000 <
b10011 ?
b10010 B
b10001 E
b10000 H
b1111 K
b10010 N
b10001 Q
b10000 T
b1111 W
b1110 Z
b10001 ]
b10000 `
b1111 c
b1110 f
b1101 i
1l
#209
0l
#214
b10110 !
b10101 $
b10100 '
b10011 *
b10010 -
b10101 0
b10100 3
b10011 6
b10010 9
b10001 <
b10100 ?
b10011 B
b10010 E
b10001 H
b10000 K
b10011 N
b10010 Q
b10001 T
b10000 W
b1111 Z
b10010 ]
b10001 `
b10000 c
b1111 f
b1110 i
1l
#219
0l
#224
b10111 !
b10110 $
b10101 '
b10100 *
b10011 -
b10110 0
b10101 3
b10100 6
b10011 9
b10010 <
b10101 ?
b10100 B
b10011 E
b10010 H
b10001 K
b10100 N
b10011 Q
b10010 T
b10001 W
b10000 Z
b10011 ]
b10010 `
b10001 c
b10000 f
b1111 i
1l
#229
0l
#234
b11000 !
b10111 $
b10110 '
b10101 *
b10100 -
b10111 0
b10110 3
b10101 6
b10100 9
b10011 <
b10110 ?
b10101 B
b10100 E
b10011 H
b10010 K
b10101 N
b10100 Q
b10011 T
b10010 W
b10001 Z
b10100 ]
b10011 `
b10010 c
b10001 f
b10000 i
1l
#239
0l
#244
b11001 !
b11000 $
b10111 '
b10110 *
b10101 -
b11000 0
b10111 3
b10110 6
b10101 9
b10100 <
b10111 ?
b10110 B
b10101 E
b10100 H
b10011 K
b10110 N
b10101 Q
b10100 T
b10011 W
b10010 Z
b10101 ]
b10100 `
b10011 c
b10010 f
b10001 i
1l
#249
0l
#254
b11010 !
b11001 $
b11000 '
b10111 *
b10110 -
b11001 0
b11000 3
b10111 6
b10110 9
b10101 <
b11000 ?
b10111 B
b10110 E
b10101 H
b10100 K
b10111 N
b10110 Q
b10101 T
b10100 W
b10011 Z
b10110 ]
b10101 `
b10100 c
b10011 f
b10010 i
1l
#259
0l
#264
b11011 !
b11010 $
b11001 '
b11000 *
b10111 -
b11010 0
b11001 3
b11000 6
b10111 9
b10110 <
b11001 ?
b11000 B
b10111 E
b10110 H
b10101 K
b11000 N
b10111 Q
b10110 T
b10101 W
b10100 Z
b10111 ]
b10110 `
b10101 c
b10100 f
b10011 i
1l
#269
0l
#274
b11100 !
b11011 $
b11010 '
b11001 *
b11000 -
b11011 0
b11010 3
b11001 6
b11000 9
b10111 <
b11010 ?
b11001 B
b11000 E
b10111 H
b10110 K
b11001 N
b11000 Q
b10111 T
b10110 W
b10101 Z
b11000 ]
b10111 `
b10110 c
b10101 f
b10100 i
1l
#279
0l
#284
b11101 !
b11100 $
b11011 '
b11010 *
b11001 -
b11100 0
b11011 3
b11010 6
b11001 9
b11000 <
b11011 ?
b11010 B
b11001 E
b11000 H
b10111 K
b11010 N
b11001 Q
b11000 T
b10111 W
b10110 Z
b11001 ]
b11000 `
b10111 c
b10110 f
b10101 i
1l
#289
0l
#294
b11110 !
b11101 $
b11100 '
b11011 *
b11010 -
b11101 0
b11100 3
b11011 6
b11010 9
b11001 <
b11100 ?
b11011 B
b11010 E
b11001 H
b11000 K
b11011 N
b11010 Q
b11001 T
b11000 W
b10111 Z
b11010 ]
b11001 `
b11000 c
b10111 f
b10110 i
1l
#299
0l
#304
b11111 !
b11110 $
b11101 '
b11100 *
b11011 -
b11110 0
b11101 3
b11100 6
b11011 9
b11010 <
b11101 ?
b11100 B
b11011 E
b11010 H
b11001 K
b11100 N
b11011 Q
b11010 T
b11001 W
b11000 Z
b11011 ]
b11010 `
b11001 c
b11000 f
b10111 i
1l
#309
0l
#314
b100000 !
b11111 $
b11110 '
b11101 *
b11100 -
b11111 0
b11110 3
b11101 6
b11100 9
b11011 <
b11110 ?
b11101 B
b11100 E
b11011 H
b11010 K
b11101 N
b11100 Q
b11011 T
b11010 W
b11001 Z
b11100 ]
b11011 `
b11010 c
b11001 f
b11000 i
1l
#319
0l
#324
b100001 !
b100000 $
b11111 '
b11110 *
b11101 -
b100000 0
b11111 3
b11110 6
b11101 9
b11100 <
b11111 ?
b11110 B
b11101 E
b11100 H
b11011 K
b11110 N
b11101 Q
b11100 T
b11011 W
b11010 Z
b11101 ]
b11100 `
b11011 c
b11010 f
b11001 i
1l
#329
0l
#334
b100010 !
b100001 $
b100000 '
b11111 *
b11110 -
b100001 0
b100000 3
b11111 6
b11110 9
b11101 <
b100000 ?
b11111 B
b11110 E
b11101 H
b11100 K
b11111 N
b11110 Q
b11101 T
b11100 W
b11011 Z
b11110 ]
b11101 `
b11100 c
b11011 f
b11010 i
1l
#339
0l
#344
b100011 !
b100010 $
b100001 '
b100000 *
b11111 -
b100010 0
b100001 3
b100000 6
b11111 9
b11110 <
b100001 ?
b100000 B
b11111 E
b11110 H
b11101 K
b100000 N
b11111 Q
b11110 T
b11101 W
b11100 Z
b11111 ]
b11110 `
b11101 c
b11100 f
b11011 i
1l
#349
0l
#354
b100100 !
b100011 $
b100010 '
b100001 *
b100000 -
b100011 0
b100010 3
b100001 6
b100000 9
b11111 <
b100010 ?
b100001 B
b100000 E
b11111 H
b11110 K
b100001 N
b100000 Q
b11111 T
b11110 W
b11101 Z
b100000 ]
b11111 `
b11110 c
b11101 f
b11100 i
1l
#359
0l
#364
b100101 !
b100100 $
b100011 '
b100010 *
b100001 -
b100100 0
b100011 3
b100010 6
b100001 9
b100000 <
b100011 ?
b100010 B
b100001 E
b100000 H
b11111 K
b100010 N
b100001 Q
b100000 T
b11111 W
b11110 Z
b100001 ]
b100000 `
b11111 c
b11110 f
b11101 i
1l
#369
0l
#374
b100110 !
b100101 $
b100100 '
b100011 *
b100010 -
b100101 0
b100100 3
b100011 6
b100010 9
b100001 <
b100100 ?
b100011 B
b100010 E
b100001 H
b100000 K
b100011 N
b100010 Q
b100001 T
b100000 W
b11111 Z
b100010 ]
b100001 `
b100000 c
b11111 f
b11110 i
1l
#379
0l
#384
b100111 !
b100110 $
b100101 '
b100100 *
b100011 -
b100110 0
b100101 3
b100100 6
b100011 9
b100010 <
b100101 ?
b100100 B
b100011 E
b100010 H
b100001 K
b100100 N
b100011 Q
b100010 T
b100001 W
b100000 Z
b100011 ]
b100010 `
b100001 c
b100000 f
b11111 i
1l
#389
0l
#394
b101000 !
b100111 $
b100110 '
b100101 *
b100100 -
b100111 0
b100110 3
b100101 6
b100100 9
b100011 <
b100110 ?
b100101 B
b100100 E
b100011 H
b100010 K
b100101 N
b100100 Q
b100011 T
b100010 W
b100001 Z
b100100 ]
b100011 `
b100010 c
b100001 f
b100000 i
1l
#399
0l
#404
b101001 !
b101000 $
b100111 '
b100110 *
b100101 -
b101000 0
b100111 3
b100110 6
b100101 9
b100100 <
b100111 ?
b100110 B
b100101 E
b100100 H
b100011 K
b100110 N
b100101 Q
b100100 T
b100011 W
b100010 Z
b100101 ]
b100100 `
b100011 c
b100010 f
b100001 i
1l
#409
0l
#414
b101010 !
b101001 $
b101000 '
b100111 *
b100110 -
b101001 0
b101000 3
b100111 6
b100110 9
b100101 <
b101000 ?
b100111 B
b100110 E
b100101 H
b100100 K
b100111 N
b100110 Q
b100101 T
b100100 W
b100011 Z
b100110 ]
b100101 `
b100100 c
b100011 f
b100010 i
1l
#419
0l
#424
b101011 !
b101010 $
b101001 '
b101000 *
b100111 -
b101010 0
b101001 3
b101000 6
b100111 9
b100110 <
b101001 ?
b101000 B
b100111 E
b100110 H
b100101 K
b101000 N
b100111 Q
b100110 T
b100101 W
b100100 Z
b100111 ]
b100110 `
b100101 c
b100100 f
b100011 i
1l
#429
0l
#434
b101100 !
b101011 $
b101010 '
b101001 *
b101000 -
b101011 0
b101010 3
b101001 6
b101000 9
b100111 <
b101010 ?
b101001 B
b101000 E
b100111 H
b100110 K
b101001 N
b101000 Q
b100111 T
b100110 W
b100101 Z
b101000 ]
b100111 `
b100110 c
b100101 f
b100100 i
1l
#439
0l
#444
b101101 !
b101100 $
b101011 '
b101010 *
b101001 -
b101100 0
b101011 3
b101010 6
b101001 9
b101000 <
b101011 ?
b101010 B
b101001 E
b101000 H
b100111 K
b101010 N
b101001 Q
b101000 T
b100111 W
b100110 Z
b101001 ]
b101000 `
b100111 c
b100110 f
b100101 i
1l
#449
0l
#454
b101110 !
b101101 $
b101100 '
b101011 *
b101010 -
b101101 0
b101100 3
b101011 6
b101010 9
b101001 <
b101100 ?
b101011 B
b101010 E
b101001 H
b101000 K
b101011 N
b101010 Q
b101001 T
b101000 W
b100111 Z
b101010 ]
b101001 `
b101000 c
b100111 f
b100110 i
1l
#459
0l
#464
b101111 !
b101110 $
b101101 '
b101100 *
b101011 -
b101110 0
b101101 3
b101100 6
b101011 9
b101010 <
b101101 ?
b101100 B
b101011 E
b101010 H
b101001 K
b101100 N
b101011 Q
b101010 T
b101001 W
b101000 Z
b101011 ]
b101010 `
b101001 c
b101000 f
b100111 i
1l
#469
0l
#474
b110000 !
b101111 $
b101110 '
b101101 *
b101100 -
b101111 0
b101110 3
b101101 6
b101100 9
b101011 <
b101110 ?
b101101 B
b101100 E
b101011 H
b101010 K
b101101 N
b101100 Q
b101011 T
b101010 W
b101001 Z
b101100 ]
b101011 `
b101010 c
b101001 f
b101000 i
1l
#479
0l
#484
b110001 !
b110000 $
b101111 '
b101110 *
b101101 -
b110000 0
b101111 3
b101110 6
b101101 9
b101100 <
b101111 ?
b101110 B
b101101 E
b101100 H
b101011 K
b101110 N
b101101 Q
b101100 T
b101011 W
b101010 Z
b101101 ]
b101100 `
b101011 c
b101010 f
b101001 i
1l
#489
0l
#494
b110010 !
b110001 $
b110000 '
b101111 *
b101110 -
b110001 0
b110000 3
b101111 6
b101110 9
b101101 <
b110000 ?
b101111 B
b101110 E
b101101 H
b101100 K
b101111 N
b101110 Q
b101101 T
b101100 W
b101011 Z
b101110 ]
b101101 `
b101100 c
b101011 f
b101010 i
1l
#499
0l
#504
b110011 !
b110010 $
b110001 '
b110000 *
b101111 -
b110010 0
b110001 3
b110000 6
b101111 9
b101110 <
b110001 ?
b110000 B
b101111 E
b101110 H
b101101 K
b110000 N
b101111 Q
b101110 T
b101101 W
b101100 Z
b101111 ]
b101110 `
b101101 c
b101100 f
b101011 i
1l
#509
0l
#514
b110100 !
b110011 $
b110010 '
b110001 *
b110000 -
b110011 0
b110010 3
b110001 6
b110000 9
b101111 <
b110010 ?
b110001 B
b110000 E
b101111 H
b101110 K
b110001 N
b110000 Q
b101111 T
b101110 W
b101101 Z
b110000 ]
b101111 `
b101110 c
b101101 f
b101100 i
1l
#519
0l
#524
b110101 !
b110100 $
b110011 '
b110010 *
b110001 -
b110100 0
b110011 3
b110010 6
b110001 9
b110000 <
b110011 ?
b110010 B
b110001 E
b110000 H
b101111 K
b110010 N
b110001 Q
b110000 T
b101111 W
b101110 Z
b110001 ]
b110000 `
b101111 c
b101110 f
b101101 i
1l
#529
0l
#534
b110110 !
b110101 $
b110100 '
b110011 *
b110010 -
b110101 0
b110100 3
b110011 6
b110010 9
b110001 <
b110100 ?
b110011 B
b110010 E
b110001 H
b110000 K
b110011 N
b110010 Q
b110001 T
b110000 W
b101111 Z
b110010 ]
b110001 `
b110000 c
b101111 f
b101110 i
1l
#539
0l
#544
b110111 !
b110110 $
b110101 '
b110100 *
b110011 -
b110110 0
b110101 3
b110100 6
b110011 9
b110010 <
b110101 ?
b110100 B
b110011 E
b110010 H
b110001 K
b110100 N
b110011 Q
b110010 T
b110001 W
b110000 Z
b110011 ]
b110010 `
b110001 c
b110000 f
b101111 i
1l
#549
0l
#554
b111000 !
b110111 $
b110110 '
b110101 *
b110100 -
b110111 0
b110110 3
b110101 6
b110100 9
b110011 <
b110110 ?
b110101 B
b110100 E
b110011 H
b110010 K
b110101 N
b110100 Q
b110011 T
b110010 W
b110001 Z
b110100 ]
b110011 `
b110010 c
b110001 f
b110000 i
1l
#559
0l
#564
b111001 !
b111000 $
b110111 '
b110110 *
b110101 -
b111000 0
b110111 3
b110110 6
b110101 9
b110100 <
b110111 ?
b110110 B
b110101 E
b110100 H
b110011 K
b110110 N
b110101 Q
b110100 T
b110011 W
b110010 Z
b110101 ]
b110100 `
b110011 c
b110010 f
b110001 i
1l
#569
0l
#574
b111010 !
b111001 $
b111000 '
b110111 *
b110110 -
b111001 0
b111000 3
b110111 6
b110110 9
b110101 <
b111000 ?
b110111 B
b110110 E
b110101 H
b110100 K
b110111 N
b110110 Q
b110101 T
b110100 W
b110011 Z
b110110 ]
b110101 `
b110100 c
b110011 f
b110010 i
1l
#579
0l
#584
b111011 !
b111010 $
b111001 '
b111000 *
b110111 -
b111010 0
b111001 3
b111000 6
b110111 9
b110110 <
b111001 ?
b111000 B
b110111 E
b110110 H
b110101 K
b111000 N
b110111 Q
b110110 T
b110101 W
b110100 Z
b110111 ]
b110110 `
b110101 c
b110100 f
b110011 i
1l
#589
0l
#594
b111100 !
b111011 $
b111010 '
b111001 *
b111000 -
b111011 0
b111010 3
b111001 6
b111000 9
b110111 <
b111010 ?
b111001 B
b111000 E
b110111 H
b110110 K
b111001 N
b111000 Q
b110111 T
b110110 W
b110101 Z
b111000 ]
b110111 `
b110110 c
b110101 f
b110100 i
1l
#599
0l
#604
b111101 !
b111100 $
b111011 '
b111010 *
b111001 -
b111100 0
b111011 3
b111010 6
b111001 9
b111000 <
b111011 ?
b111010 B
b111001 E
b111000 H
b110111 K
b111010 N
b111001 Q
b111000 T
b110111 W
b110110 Z
b111001 ]
b111000 `
b110111 c
b110110 f
b110101 i
1l
#609
0l
#614
b111110 !
b111101 $
b111100 '
b111011 *
b111010 -
b111101 0
b111100 3
b111011 6
b111010 9
b111001 <
b111100 ?
b111011 B
b111010 E
b111001 H
b111000 K
b111011 N
b111010 Q
b111001 T
b111000 W
b110111 Z
b111010 ]
b111001 `
b111000 c
b110111 f
b110110 i
1l
#619
0l
#624
b111111 !
b111110 $
b111101 '
b111100 *
b111011 -
b111110 0
b111101 3
b111100 6
b111011 9
b111010 <
b111101 ?
b111100 B
b111011 E
b111010 H
b111001 K
b111100 N
b111011 Q
b111010 T
b111001 W
b111000 Z
b111011 ]
b111010 `
b111001 c
b111000 f
b110111 i
1l
#629
0l
#634
b1000000 !
b111111 $
b111110 '
b111101 *
b111100 -
b111111 0
b111110 3
b111101 6
b111100 9
b111011 <
b111110 ?
b111101 B
b111100 E
b111011 H
b111010 K
b111101 N
b111100 Q
b111011 T
b111010 W
b111001 Z
b111100 ]
b111011 `
b111010 c
b111001 f
b111000 i
1l
#639
0l
#644
b1000001 !
b1000000 $
b111111 '
b111110 *
b111101 -
b1000000 0
b111111 3
b111110 6
b111101 9
b111100 <
b111111 ?
b111110 B
b111101 E
b111100 H
b111011 K
b111110 N
b111101 Q
b111100 T
b111011 W
b111010 Z
b111101 ]
b111100 `
b111011 c
b111010 f
b111001 i
1l
#649
0l
#654
b1000010 !
b1000001 $
b1000000 '
b111111 *
b111110 -
b1000001 0
b1000000 3
b111111 6
b111110 9
b111101 <
b1000000 ?
b111111 B
b111110 E
b111101 H
b111100 K
b111111 N
b111110 Q
b111101 T
b111100 W
b111011 Z
b111110 ]
b111101 `
b111100 c
b111011 f
b111010 i
1l
#659
0l
#664
b1000011 !
b1000010 $
b1000001 '
b1000000 *
b111111 -
b1000010 0
b1000001 3
b1000000 6
b111111 9
b111110 <
b1000001 ?
b1000000 B
b111111 E
b111110 H
b111101 K
b1000000 N
b111111 Q
b111110 T
b111101 W
b111100 Z
b111111 ]
b111110 `
b111101 c
b111100 f
b111011 i
1l
#669
0l
#674
b1000100 !
b1000011 $
b1000010 '
b1000001 *
b1000000 -
b1000011 0
b1000010 3
b1000001 6
b1000000 9
b111111 <
b1000010 ?
b1000001 B
b1000000 E
b111111 H
b111110 K
b1000001 N
b1000000 Q
b111111 T
b111110 W
b111101 Z
b1000000 ]
b111111 `
b111110 c
b111101 f
b111100 i
1l
#679
0l
#684
b1000101 !
b1000100 $
b1000011 '
b1000010 *
b1000001 -
b1000100 0
b1000011 3
b1000010 6
b1000001 9
b1000000 <
b1000011 ?
b1000010 B
b1000001 E
b1000000 H
b111111 K
b1000010 N
b1000001 Q
b1000000 T
b111111 W
b111110 Z
b1000001 ]
b1000000 `
b111111 c
b111110 f
b111101 i
1l
#689
0l
#694
b1000110 !
b1000101 $
b1000100 '
b1000011 *
b1000010 -
b1000101 0
b1000100 3
b1000011 6
b1000010 9
b1000001 <
b1000100 ?
b1000011 B
b1000010 E
b1000001 H
b1000000 K
b1000011 N
b1000010 Q
b1000001 T
b1000000 W
b111111 Z
b1000010 ]
b1000001 `
b1000000 c
b111111 f
b111110 i
1l
#699
0l
#704
b1000111 !
b1000110 $
b1000101 '
b1000100 *
b1000011 -
b1000110 0
b1000101 3
b1000100 6
b1000011 9
b1000010 <
b1000101 ?
b1000100 B
b1000011 E
b1000010 H
b1000001 K
b1000100 N
b1000011 Q
b1000010 T
b1000001 W
b1000000 Z
b1000011 ]
b1000010 `
b1000001 c
b1000000 f
b111111 i
1l
#709
0l
#714
b1001000 !
b1000111 $
b1000110 '
b1000101 *
b1000100 -
b1000111 0
b1000110 3
b1000101 6
b1000100 9
b1000011 <
b1000110 ?
b1000101 B
b1000100 E
b1000011 H
b1000010 K
b1000101 N
b1000100 Q
b1000011 T
b1000010 W
b1000001 Z
b1000100 ]
b1000011 `
b1000010 c
b1000001 f
b1000000 i
1l
#719
0l
#724
b1001001 !
b1001000 $
b1000111 '
b1000110 *
b1000101 -
b1001000 0
b1000111 3
b1000110 6
b1000101 9
b1000100 <
b1000111 ?
b1000110 B
b1000101 E
b1000100 H
b1000011 K
b1000110 N
b1000101 Q
b1000100 T
b1000011 W
b1000010 Z
b1000101 ]
b1000100 `
b1000011 c
b1000010 f
b1000001 i
1l
#729
0l
#734
b1001010 !
b1001001 $
b1001000 '
b1000111 *
b1000110 -
b1001001 0
b1001000 3
b1000111 6
b1000110 9
b1000101 <
b1001000 ?
b1000111 B
b1000110 E
b1000101 H
b1000100 K
b1000111 N
b1000110 Q
b1000101 T
b1000100 W
b1000011 Z
b1000110 ]
b1000101 `
b1000100 c
b1000011 f
b1000010 i
1l
#739
0l
#744
b1001011 !
b1001010 $
b1001001 '
b1001000 *
b1000111 -
b1001010 0
b1001001 3
b1001000 6
b1000111 9
b1000110 <
b1001001 ?
b1001000 B
b1000111 E
b1000110 H
b1000101 K
b1001000 N
b1000111 Q
b1000110 T
b1000101 W
b1000100 Z
b1000111 ]
b1000110 `
b1000101 c
b1000100 f
b1000011 i
1l
#749
0l
#754
b1001100 !
b1001011 $
b1001010 '
b1001001 *
b1001000 -
b1001011 0
b1001010 3
b1001001 6
b1001000 9
b1000111 <
b1001010 ?
b1001001 B
b1001000 E
b1000111 H
b1000110 K
b1001001 N
b1001000 Q
b1000111 T
b1000110 W
b1000101 Z
b1001000 ]
b1000111 `
b1000110 c
b1000101 f
b1000100 i
1l
#759
0l
#764
b1001101 !
b1001100 $
b1001011 '
b1001010 *
b1001001 -
b1001100 0
b1001011 3
b1001010 6
b1001001 9
b1001000 <
b1001011 ?
b1001010 B
b1001001 E
b1001000 H
b1000111 K
b1001010 N
b1001001 Q
b1001000 T
b1000111 W
b1000110 Z
b1001001 ]
b1001000 `
b1000111 c
b1000110 f
b1000101 i
1l
#769
0l
#774
b1001110 !
b1001101 $
b1001100 '
b1001011 *
b1001010 -
b1001101 0
b1001100 3
b1001011 6
b1001010 9
b1001001 <
b1001100 ?
b1001011 B
b1001010 E
b1001001 H
b1001000 K
b1001011 N
b1001010 Q
b1001001 T
b1001000 W
b1000111 Z
b1001010 ]
b1001001 `
b1001000 c
b1000111 f
b1000110 i
1l
#779
0l
