working/matrix_mul.vcd
$date today $end
$timescale 1 ns $end
$scope module top $end
$var wire 10 ! result $end
$var wire 8 " [0][0]regs_a $end
$var wire 8 # [1][1]regs_a $end
$var wire 8 $ [2][2]regs_a $end
$var wire 8 % [3][3]regs_a $end
$var wire 8 & [4][4]regs_a $end
$var wire 8 ' [0][0]regs_b $end
$var wire 8 ( [1][1]regs_b $end
$var wire 8 ) [2][2]regs_b $end
$var wire 8 * [3][3]regs_b $end
$var wire 8 + [4][4]regs_b $end
$var wire 1 , clk $end
$upscope $end
$enddefinitions $end
#0
$dumpvars
b0 !
b0 "
b0 #
b0 $
b0 %
b0 &
b0 '
b0 (
b0 )
b0 *
b0 +
0,
$end
#4
b1 "
b1 '
1,
#9
0,
#14
b10 "
b10 #
b10 '
b10 (
1,
#19
0,
#24
b11 "
b11 #
b11 $
b11 '
b11 (
b11 )
1,
#29
0,
#34
b1 !
b100 "
b100 #
b100 $
b100 %
b100 '
b100 (
b100 )
b100 *
1,
#39
0,
#44
b101 !
b101 "
b101 #
b101 $
b101 %
b101 &
b101 '
b101 (
b101 )
b101 *
b101 +
1,
#49
0,
#54
b10010 !
b0 "
b110 #
b110 $
b110 %
b110 &
b0 '
b110 (
b110 )
b110 *
b110 +
1,
#59
0,
#64
b101011 !
b0 #
b111 $
b111 %
b111 &
b0 (
b111 )
b111 *
b111 +
1,
#69
0,
#74
b1011101 !
b0 $
b1000 %
b1000 &
b0 )
b1000 *
b1000 +
1,
#79
0,
#84
b10000110 !
b0 %
b1001 &
b0 *
b1001 +
1,
#89
0,
#94
b11010011 !
b0 &
b0 +
1,
#99
0,
#104
b100010000 !
1,
#109
0,
#114
b101111110 !
1,
#119
0,
#124
b111010011 !
1,
#129
0,
#134
b1001000100 !
1,
#139
0,
#144
b1010000100 !
1,
#149
0,
#154
b1011010101 !
1,
